{
	"nodes":
	[
		{
		"origin": "Human",
		"info_page": "/fr/samples/info/1/",
		"id": 1,
		"type": "Epididymal adipose tissue (EWAT)",
		"is_direct_linked_to_main": false,
		"is_main": true,
		"generation": 0,
		"name": "Yoann"
		},
		{
		"origin": "Actinobacteria",
		"info_page": "/fr/samples/info/2/",
		"id": 2,
		"type": "Body organ",
		"is_direct_linked_to_main": true,
		"is_main": false,
		"generation": -1,
		"name": "Alice_4"
		},
		{
		"origin": "Actinomadura pelletieri",
		"info_page": "/fr/samples/info/3/",
		"id": 3,
		"type": "Adipose tissue",
		"is_direct_linked_to_main": false,
		"is_main": false,
		"generation": -2,
		"name": "UnEnfantTroisParent"
		},
		{
		"origin": "Bacteria",
		"info_page": "/fr/samples/info/4/",
		"id": 4,
		"type": "Body organ",
		"is_direct_linked_to_main": false,
		"is_main": false,
		"generation": -3,
		"name": "parent_Simple"
		},
		{
		"origin": "Hantaan virus",
		"info_page": "/fr/samples/info/5/",
		"id": 5,
		"type": "Swab of eye",
		"is_direct_linked_to_main": false,
		"is_main": false,
		"generation": -3,
		"name": "parent_jumeaaux_1"
		},
		{
		"origin": "Hantaan virus",
		"info_page": "/fr/samples/info/6/",
		"id": 6,
		"type": "Swab of eye",
		"is_direct_linked_to_main": false,
		"is_main": false,
		"generation": -3,
		"name": "parent_jumeaaux_2"
		},
		{
		"origin": "Actinobacteria",
		"info_page": "/fr/samples/info/7/",
		"id": 7,
		"type": "Body organ",
		"is_direct_linked_to_main": false,
		"is_main": false,
		"generation": -1,
		"name": "Alice_1"
		},
		{
		"origin": "Actinomadura madurae",
		"info_page": "/fr/samples/info/8/",
		"id": 8,
		"type": "Perinephric adipose tissue (PAT)",
		"is_direct_linked_to_main": false,
		"is_main": false,
		"generation": 0,
		"name": "BOB_1"
		},
		{
		"origin": "Actinomadura madurae",
		"info_page": "/fr/samples/info/9/",
		"id": 9,
		"type": "Perinephric adipose tissue (PAT)",
		"is_direct_linked_to_main": false,
		"is_main": false,
		"generation": 0,
		"name": "BOB_2"
		},
		{
		"origin": "Actinobacteria",
		"info_page": "/fr/samples/info/10/",
		"id": 10,
		"type": "Body organ",
		"is_direct_linked_to_main": false,
		"is_main": false,
		"generation": -1,
		"name": "Alice_2"
		},
		{
		"origin": "Actinobacteria",
		"info_page": "/fr/samples/info/11/",
		"id": 11,
		"type": "Body organ",
		"is_direct_linked_to_main": false,
		"is_main": false,
		"generation": -1,
		"name": "Alice_3"
		},
		{
		"origin": "Mammal",
		"info_page": "/fr/samples/info/12/",
		"id": 12,
		"type": "Whole Blood",
		"is_direct_linked_to_main": true,
		"is_main": false,
		"generation": 1,
		"name": "Clément"
		},
		{
		"origin": "Bacteria",
		"info_page": "/fr/samples/info/13/",
		"id": 13,
		"type": "Body organ",
		"is_direct_linked_to_main": true,
		"is_main": false,
		"generation": 1,
		"name": "Échantillon test"
		},
		{
		"origin": "Actinomadura pelletieri",
		"info_page": "/fr/samples/info/14/",
		"id": 14,
		"type": "Adipose tissue",
		"is_direct_linked_to_main": false,
		"is_main": false,
		"generation": 2,
		"name": "Tissu de gras"
		},
		{
		"origin": "Bacteria",
		"info_page": "/fr/samples/info/15/",
		"id": 15,
		"type": "Body organ",
		"is_direct_linked_to_main": false,
		"is_main": false,
		"generation": 2,
		"name": "Bactérie issue d'organe"
		},
		{
		"origin": "Fungi",
		"info_page": "/fr/samples/info/16/",
		"id": 16,
		"type": "Fungi",
		"is_direct_linked_to_main": false,
		"is_main": false,
		"generation": 2,
		"name": "Champi a déterminer"
		},
		{
		"origin": "Bird",
		"info_page": "/fr/samples/info/17/",
		"id": 17,
		"type": "Virus",
		"is_direct_linked_to_main": false,
		"is_main": false,
		"generation": 3,
		"name": "H5N1"
		},
		{
		"origin": "DNA",
		"info_page": "/fr/samples/info/18/",
		"id": 18,
		"type": "Body organ",
		"is_direct_linked_to_main": false,
		"is_main": false,
		"generation": 4,
		"name": "DNA-1-56789"
		},
		{
		"origin": "DNA",
		"info_page": "/fr/samples/info/19/",
		"id": 19,
		"type": "Body organ",
		"is_direct_linked_to_main": false,
		"is_main": false,
		"generation": 4,
		"name": "DNA-1-56790"
		},
		{
		"origin": "DNA",
		"info_page": "/fr/samples/info/20/",
		"id": 20,
		"type": "Body organ",
		"is_direct_linked_to_main": false,
		"is_main": false,
		"generation": 4,
		"name": "DNA-1-56791"
		},
		{
		"origin": "RNA",
		"info_page": "/fr/samples/info/21/",
		"id": 21,
		"type": "Body organ",
		"is_direct_linked_to_main": false,
		"is_main": false,
		"generation": 4,
		"name": "RNA-1-56789"
		},
		{
		"origin": "RNA",
		"info_page": "/fr/samples/info/22/",
		"id": 22,
		"type": "Body organ",
		"is_direct_linked_to_main": false,
		"is_main": false,
		"generation": 4,
		"name": "RNA-1-56790"
		},
		{
		"origin": "RNA",
		"info_page": "/fr/samples/info/23/",
		"id": 23,
		"type": "Body organ",
		"is_direct_linked_to_main": false,
		"is_main": false,
		"generation": 4,
		"name": "RNA-1-56791"
		},
		{
		"origin": "RNA",
		"info_page": "/fr/samples/info/24/",
		"id": 24,
		"type": "Body organ",
		"is_direct_linked_to_main": false,
		"is_main": false,
		"generation": 4,
		"name": "RNA-1-56792"
		},
		{
		"origin": "RNA",
		"info_page": "/fr/samples/info/25/",
		"id": 25,
		"type": "Body organ",
		"is_direct_linked_to_main": false,
		"is_main": false,
		"generation": 4,
		"name": "RNA-1-56793"
		},
		{
		"origin": "RNA",
		"info_page": "/fr/samples/info/26/",
		"id": 26,
		"type": "Body organ",
		"is_direct_linked_to_main": false,
		"is_main": false,
		"generation": 4,
		"name": "RNA-1-56794"
		},
		{
		"origin": "RNA",
		"info_page": "/fr/samples/info/27/",
		"id": 27,
		"type": "Body organ",
		"is_direct_linked_to_main": false,
		"is_main": false,
		"generation": 4,
		"name": "RNA-1-56795"
		},
		{
		"origin": "RNA",
		"info_page": "/fr/samples/info/28/",
		"id": 28,
		"type": "Body organ",
		"is_direct_linked_to_main": false,
		"is_main": false,
		"generation": 4,
		"name": "RNA-1-56846"
		},
		{
		"origin": "RNA",
		"info_page": "/fr/samples/info/29/",
		"id": 29,
		"type": "Body organ",
		"is_direct_linked_to_main": false,
		"is_main": false,
		"generation": 4,
		"name": "RNA-1-56847"
		},
		{
		"origin": "RNA",
		"info_page": "/fr/samples/info/30/",
		"id": 30,
		"type": "Body organ",
		"is_direct_linked_to_main": false,
		"is_main": false,
		"generation": 4,
		"name": "RNA-1-56848"
		},
		{
		"origin": "RNA",
		"info_page": "/fr/samples/info/31/",
		"id": 31,
		"type": "Body organ",
		"is_direct_linked_to_main": false,
		"is_main": false,
		"generation": 4,
		"name": "RNA-1-56849"
		},
		{
		"origin": "RNA",
		"info_page": "/fr/samples/info/32/",
		"id": 32,
		"type": "Body organ",
		"is_direct_linked_to_main": false,
		"is_main": false,
		"generation": 4,
		"name": "RNA-1-56850"
		},
		{
		"origin": "RNA",
		"info_page": "/fr/samples/info/33/",
		"id": 33,
		"type": "Body organ",
		"is_direct_linked_to_main": false,
		"is_main": false,
		"generation": 4,
		"name": "RNA-1-56851"
		},
		{
		"origin": "RNA",
		"info_page": "/fr/samples/info/34/",
		"id": 34,
		"type": "Body organ",
		"is_direct_linked_to_main": false,
		"is_main": false,
		"generation": 4,
		"name": "RNA-1-56852"
		},
		{
		"origin": "RNA",
		"info_page": "/fr/samples/info/35/",
		"id": 35,
		"type": "Body organ",
		"is_direct_linked_to_main": false,
		"is_main": false,
		"generation": 4,
		"name": "RNA-1-56853"
		},
		{
		"origin": "RNA",
		"info_page": "/fr/samples/info/36/",
		"id": 36,
		"type": "Body organ",
		"is_direct_linked_to_main": false,
		"is_main": false,
		"generation": 4,
		"name": "RNA-1-56854"
		},
		{
		"origin": "RNA",
		"info_page": "/fr/samples/info/37/",
		"id": 37,
		"type": "Body organ",
		"is_direct_linked_to_main": false,
		"is_main": false,
		"generation": 4,
		"name": "RNA-1-56855"
		},
		{
		"origin": "RNA",
		"info_page": "/fr/samples/info/38/",
		"id": 38,
		"type": "Body organ",
		"is_direct_linked_to_main": false,
		"is_main": false,
		"generation": 4,
		"name": "RNA-1-56856"
		},
		{
		"origin": "RNA",
		"info_page": "/fr/samples/info/39/",
		"id": 39,
		"type": "Body organ",
		"is_direct_linked_to_main": false,
		"is_main": false,
		"generation": 4,
		"name": "RNA-1-56857"
		},
		{
		"origin": "RNA",
		"info_page": "/fr/samples/info/40/",
		"id": 40,
		"type": "Body organ",
		"is_direct_linked_to_main": false,
		"is_main": false,
		"generation": 4,
		"name": "RNA-1-56858"
		},
		{
		"origin": "RNA",
		"info_page": "/fr/samples/info/41/",
		"id": 41,
		"type": "Body organ",
		"is_direct_linked_to_main": false,
		"is_main": false,
		"generation": 4,
		"name": "RNA-1-56859"
		},
		{
		"origin": "RNA",
		"info_page": "/fr/samples/info/42/",
		"id": 42,
		"type": "Body organ",
		"is_direct_linked_to_main": false,
		"is_main": false,
		"generation": 4,
		"name": "RNA-1-56860"
		},
		{
		"origin": "RNA",
		"info_page": "/fr/samples/info/43/",
		"id": 43,
		"type": "Body organ",
		"is_direct_linked_to_main": false,
		"is_main": false,
		"generation": 4,
		"name": "RNA-1-56861"
		},
		{
		"origin": "RNA",
		"info_page": "/fr/samples/info/44/",
		"id": 44,
		"type": "Body organ",
		"is_direct_linked_to_main": false,
		"is_main": false,
		"generation": 4,
		"name": "RNA-1-56862"
		},
		{
		"origin": "RNA",
		"info_page": "/fr/samples/info/45/",
		"id": 45,
		"type": "Body organ",
		"is_direct_linked_to_main": false,
		"is_main": false,
		"generation": 4,
		"name": "RNA-1-56863"
		},
		{
		"origin": "RNA",
		"info_page": "/fr/samples/info/46/",
		"id": 46,
		"type": "Body organ",
		"is_direct_linked_to_main": false,
		"is_main": false,
		"generation": 4,
		"name": "RNA-1-56864"
		},
		{
		"origin": "RNA",
		"info_page": "/fr/samples/info/47/",
		"id": 47,
		"type": "Body organ",
		"is_direct_linked_to_main": false,
		"is_main": false,
		"generation": 4,
		"name": "RNA-1-56865"
		},
		{
		"origin": "RNA",
		"info_page": "/fr/samples/info/48/",
		"id": 48,
		"type": "Body organ",
		"is_direct_linked_to_main": false,
		"is_main": false,
		"generation": 4,
		"name": "RNA-1-56866"
		},
		{
		"origin": "RNA",
		"info_page": "/fr/samples/info/49/",
		"id": 49,
		"type": "Body organ",
		"is_direct_linked_to_main": false,
		"is_main": false,
		"generation": 4,
		"name": "RNA-1-56867"
		},
		{
		"origin": "RNA",
		"info_page": "/fr/samples/info/50/",
		"id": 50,
		"type": "Body organ",
		"is_direct_linked_to_main": false,
		"is_main": false,
		"generation": 4,
		"name": "RNA-1-56868"
		},
		{
		"origin": "RNA",
		"info_page": "/fr/samples/info/51/",
		"id": 51,
		"type": "Body organ",
		"is_direct_linked_to_main": false,
		"is_main": false,
		"generation": 4,
		"name": "RNA-1-56796"
		},
		{
		"origin": "RNA",
		"info_page": "/fr/samples/info/52/",
		"id": 52,
		"type": "Body organ",
		"is_direct_linked_to_main": false,
		"is_main": false,
		"generation": 4,
		"name": "RNA-1-56797"
		},
		{
		"origin": "RNA",
		"info_page": "/fr/samples/info/53/",
		"id": 53,
		"type": "Body organ",
		"is_direct_linked_to_main": false,
		"is_main": false,
		"generation": 4,
		"name": "RNA-1-56798"
		},
		{
		"origin": "RNA",
		"info_page": "/fr/samples/info/54/",
		"id": 54,
		"type": "Body organ",
		"is_direct_linked_to_main": false,
		"is_main": false,
		"generation": 4,
		"name": "RNA-1-56799"
		},
		{
		"origin": "RNA",
		"info_page": "/fr/samples/info/55/",
		"id": 55,
		"type": "Body organ",
		"is_direct_linked_to_main": false,
		"is_main": false,
		"generation": 4,
		"name": "RNA-1-56800"
		},
		{
		"origin": "RNA",
		"info_page": "/fr/samples/info/56/",
		"id": 56,
		"type": "Body organ",
		"is_direct_linked_to_main": false,
		"is_main": false,
		"generation": 4,
		"name": "RNA-1-56801"
		},
		{
		"origin": "RNA",
		"info_page": "/fr/samples/info/57/",
		"id": 57,
		"type": "Body organ",
		"is_direct_linked_to_main": false,
		"is_main": false,
		"generation": 4,
		"name": "RNA-1-56802"
		},
		{
		"origin": "RNA",
		"info_page": "/fr/samples/info/58/",
		"id": 58,
		"type": "Body organ",
		"is_direct_linked_to_main": false,
		"is_main": false,
		"generation": 4,
		"name": "RNA-1-56803"
		},
		{
		"origin": "RNA",
		"info_page": "/fr/samples/info/59/",
		"id": 59,
		"type": "Body organ",
		"is_direct_linked_to_main": false,
		"is_main": false,
		"generation": 4,
		"name": "RNA-1-56804"
		},
		{
		"origin": "RNA",
		"info_page": "/fr/samples/info/60/",
		"id": 60,
		"type": "Body organ",
		"is_direct_linked_to_main": false,
		"is_main": false,
		"generation": 4,
		"name": "RNA-1-56805"
		},
		{
		"origin": "RNA",
		"info_page": "/fr/samples/info/61/",
		"id": 61,
		"type": "Body organ",
		"is_direct_linked_to_main": false,
		"is_main": false,
		"generation": 4,
		"name": "RNA-1-56806"
		},
		{
		"origin": "RNA",
		"info_page": "/fr/samples/info/62/",
		"id": 62,
		"type": "Body organ",
		"is_direct_linked_to_main": false,
		"is_main": false,
		"generation": 4,
		"name": "RNA-1-56807"
		},
		{
		"origin": "RNA",
		"info_page": "/fr/samples/info/63/",
		"id": 63,
		"type": "Body organ",
		"is_direct_linked_to_main": false,
		"is_main": false,
		"generation": 4,
		"name": "RNA-1-56808"
		},
		{
		"origin": "RNA",
		"info_page": "/fr/samples/info/64/",
		"id": 64,
		"type": "Body organ",
		"is_direct_linked_to_main": false,
		"is_main": false,
		"generation": 4,
		"name": "RNA-1-56809"
		},
		{
		"origin": "RNA",
		"info_page": "/fr/samples/info/65/",
		"id": 65,
		"type": "Body organ",
		"is_direct_linked_to_main": false,
		"is_main": false,
		"generation": 4,
		"name": "RNA-1-56810"
		},
		{
		"origin": "RNA",
		"info_page": "/fr/samples/info/66/",
		"id": 66,
		"type": "Body organ",
		"is_direct_linked_to_main": false,
		"is_main": false,
		"generation": 4,
		"name": "RNA-1-56811"
		},
		{
		"origin": "RNA",
		"info_page": "/fr/samples/info/67/",
		"id": 67,
		"type": "Body organ",
		"is_direct_linked_to_main": false,
		"is_main": false,
		"generation": 4,
		"name": "RNA-1-56812"
		},
		{
		"origin": "RNA",
		"info_page": "/fr/samples/info/68/",
		"id": 68,
		"type": "Body organ",
		"is_direct_linked_to_main": false,
		"is_main": false,
		"generation": 4,
		"name": "RNA-1-56813"
		},
		{
		"origin": "RNA",
		"info_page": "/fr/samples/info/69/",
		"id": 69,
		"type": "Body organ",
		"is_direct_linked_to_main": false,
		"is_main": false,
		"generation": 4,
		"name": "RNA-1-56814"
		},
		{
		"origin": "RNA",
		"info_page": "/fr/samples/info/70/",
		"id": 70,
		"type": "Body organ",
		"is_direct_linked_to_main": false,
		"is_main": false,
		"generation": 4,
		"name": "RNA-1-56815"
		},
		{
		"origin": "RNA",
		"info_page": "/fr/samples/info/71/",
		"id": 71,
		"type": "Body organ",
		"is_direct_linked_to_main": false,
		"is_main": false,
		"generation": 4,
		"name": "RNA-1-56816"
		},
		{
		"origin": "RNA",
		"info_page": "/fr/samples/info/72/",
		"id": 72,
		"type": "Body organ",
		"is_direct_linked_to_main": false,
		"is_main": false,
		"generation": 4,
		"name": "RNA-1-56817"
		},
		{
		"origin": "RNA",
		"info_page": "/fr/samples/info/73/",
		"id": 73,
		"type": "Body organ",
		"is_direct_linked_to_main": false,
		"is_main": false,
		"generation": 4,
		"name": "RNA-1-56818"
		},
		{
		"origin": "RNA",
		"info_page": "/fr/samples/info/74/",
		"id": 74,
		"type": "Body organ",
		"is_direct_linked_to_main": false,
		"is_main": false,
		"generation": 4,
		"name": "RNA-1-56819"
		},
		{
		"origin": "RNA",
		"info_page": "/fr/samples/info/75/",
		"id": 75,
		"type": "Body organ",
		"is_direct_linked_to_main": false,
		"is_main": false,
		"generation": 4,
		"name": "RNA-1-56820"
		},
		{
		"origin": "RNA",
		"info_page": "/fr/samples/info/76/",
		"id": 76,
		"type": "Body organ",
		"is_direct_linked_to_main": false,
		"is_main": false,
		"generation": 4,
		"name": "RNA-1-56821"
		},
		{
		"origin": "RNA",
		"info_page": "/fr/samples/info/77/",
		"id": 77,
		"type": "Body organ",
		"is_direct_linked_to_main": false,
		"is_main": false,
		"generation": 4,
		"name": "RNA-1-56822"
		},
		{
		"origin": "RNA",
		"info_page": "/fr/samples/info/78/",
		"id": 78,
		"type": "Body organ",
		"is_direct_linked_to_main": false,
		"is_main": false,
		"generation": 4,
		"name": "RNA-1-56823"
		},
		{
		"origin": "RNA",
		"info_page": "/fr/samples/info/79/",
		"id": 79,
		"type": "Body organ",
		"is_direct_linked_to_main": false,
		"is_main": false,
		"generation": 4,
		"name": "RNA-1-56824"
		},
		{
		"origin": "RNA",
		"info_page": "/fr/samples/info/80/",
		"id": 80,
		"type": "Body organ",
		"is_direct_linked_to_main": false,
		"is_main": false,
		"generation": 4,
		"name": "RNA-1-56825"
		},
		{
		"origin": "RNA",
		"info_page": "/fr/samples/info/81/",
		"id": 81,
		"type": "Body organ",
		"is_direct_linked_to_main": false,
		"is_main": false,
		"generation": 4,
		"name": "RNA-1-56826"
		},
		{
		"origin": "RNA",
		"info_page": "/fr/samples/info/82/",
		"id": 82,
		"type": "Body organ",
		"is_direct_linked_to_main": false,
		"is_main": false,
		"generation": 4,
		"name": "RNA-1-56827"
		},
		{
		"origin": "RNA",
		"info_page": "/fr/samples/info/83/",
		"id": 83,
		"type": "Body organ",
		"is_direct_linked_to_main": false,
		"is_main": false,
		"generation": 4,
		"name": "RNA-1-56828"
		},
		{
		"origin": "RNA",
		"info_page": "/fr/samples/info/84/",
		"id": 84,
		"type": "Body organ",
		"is_direct_linked_to_main": false,
		"is_main": false,
		"generation": 4,
		"name": "RNA-1-56829"
		},
		{
		"origin": "RNA",
		"info_page": "/fr/samples/info/85/",
		"id": 85,
		"type": "Body organ",
		"is_direct_linked_to_main": false,
		"is_main": false,
		"generation": 4,
		"name": "RNA-1-56830"
		},
		{
		"origin": "RNA",
		"info_page": "/fr/samples/info/86/",
		"id": 86,
		"type": "Body organ",
		"is_direct_linked_to_main": false,
		"is_main": false,
		"generation": 4,
		"name": "RNA-1-56831"
		},
		{
		"origin": "RNA",
		"info_page": "/fr/samples/info/87/",
		"id": 87,
		"type": "Body organ",
		"is_direct_linked_to_main": false,
		"is_main": false,
		"generation": 4,
		"name": "RNA-1-56832"
		},
		{
		"origin": "RNA",
		"info_page": "/fr/samples/info/88/",
		"id": 88,
		"type": "Body organ",
		"is_direct_linked_to_main": false,
		"is_main": false,
		"generation": 4,
		"name": "RNA-1-56833"
		},
		{
		"origin": "RNA",
		"info_page": "/fr/samples/info/89/",
		"id": 89,
		"type": "Body organ",
		"is_direct_linked_to_main": false,
		"is_main": false,
		"generation": 4,
		"name": "RNA-1-56834"
		},
		{
		"origin": "RNA",
		"info_page": "/fr/samples/info/90/",
		"id": 90,
		"type": "Body organ",
		"is_direct_linked_to_main": false,
		"is_main": false,
		"generation": 4,
		"name": "RNA-1-56835"
		},
		{
		"origin": "RNA",
		"info_page": "/fr/samples/info/91/",
		"id": 91,
		"type": "Body organ",
		"is_direct_linked_to_main": false,
		"is_main": false,
		"generation": 4,
		"name": "RNA-1-56836"
		},
		{
		"origin": "RNA",
		"info_page": "/fr/samples/info/92/",
		"id": 92,
		"type": "Body organ",
		"is_direct_linked_to_main": false,
		"is_main": false,
		"generation": 4,
		"name": "RNA-1-56837"
		},
		{
		"origin": "RNA",
		"info_page": "/fr/samples/info/93/",
		"id": 93,
		"type": "Body organ",
		"is_direct_linked_to_main": false,
		"is_main": false,
		"generation": 4,
		"name": "RNA-1-56838"
		},
		{
		"origin": "RNA",
		"info_page": "/fr/samples/info/94/",
		"id": 94,
		"type": "Body organ",
		"is_direct_linked_to_main": false,
		"is_main": false,
		"generation": 4,
		"name": "RNA-1-56839"
		},
		{
		"origin": "RNA",
		"info_page": "/fr/samples/info/95/",
		"id": 95,
		"type": "Body organ",
		"is_direct_linked_to_main": false,
		"is_main": false,
		"generation": 4,
		"name": "RNA-1-56840"
		},
		{
		"origin": "RNA",
		"info_page": "/fr/samples/info/96/",
		"id": 96,
		"type": "Body organ",
		"is_direct_linked_to_main": false,
		"is_main": false,
		"generation": 4,
		"name": "RNA-1-56841"
		},
		{
		"origin": "RNA",
		"info_page": "/fr/samples/info/97/",
		"id": 97,
		"type": "Body organ",
		"is_direct_linked_to_main": false,
		"is_main": false,
		"generation": 4,
		"name": "RNA-1-56842"
		},
		{
		"origin": "RNA",
		"info_page": "/fr/samples/info/98/",
		"id": 98,
		"type": "Body organ",
		"is_direct_linked_to_main": false,
		"is_main": false,
		"generation": 4,
		"name": "RNA-1-56843"
		},
		{
		"origin": "RNA",
		"info_page": "/fr/samples/info/99/",
		"id": 99,
		"type": "Body organ",
		"is_direct_linked_to_main": false,
		"is_main": false,
		"generation": 4,
		"name": "RNA-1-56844"
		},
		{
		"origin": "RNA",
		"info_page": "/fr/samples/info/100/",
		"id": 100,
		"type": "Body organ",
		"is_direct_linked_to_main": false,
		"is_main": false,
		"generation": 4,
		"name": "RNA-1-56845"
		}
	],
	"edges":
	[
		{
		"source": 2,
		"is_linked_to_main": true,
		"target": 1
		},
		{
		"source": 3,
		"is_linked_to_main": false,
		"target": 2
		},
		{
		"source": 4,
		"is_linked_to_main": false,
		"target": 3
		},
		{
		"source": 5,
		"is_linked_to_main": false,
		"target": 3
		},
		{
		"source": 6,
		"is_linked_to_main": false,
		"target": 3
		},
		{
		"source": 3,
		"is_linked_to_main": false,
		"target": 7
		},
		{
		"source": 7,
		"is_linked_to_main": false,
		"target": 8
		},
		{
		"source": 7,
		"is_linked_to_main": false,
		"target": 9
		},
		{
		"source": 3,
		"is_linked_to_main": false,
		"target": 10
		},
		{
		"source": 3,
		"is_linked_to_main": false,
		"target": 11
		},
		{
		"source": 1,
		"is_linked_to_main": true,
		"target": 12
		},
		{
		"source": 1,
		"is_linked_to_main": true,
		"target": 13
		},
		{
		"source": 12,
		"is_linked_to_main": false,
		"target": 14
		},
		{
		"source": 12,
		"is_linked_to_main": false,
		"target": 15
		},
		{
		"source": 13,
		"is_linked_to_main": false,
		"target": 15
		},
		{
		"source": 13,
		"is_linked_to_main": false,
		"target": 16
		},
		{
		"source": 14,
		"is_linked_to_main": false,
		"target": 17
		},
		{
		"source": 15,
		"is_linked_to_main": false,
		"target": 17
		},
		{
		"source": 16,
		"is_linked_to_main": false,
		"target": 17
		},
		{
		"source": 17,
		"is_linked_to_main": false,
		"target": 18
		},
		{
		"source": 17,
		"is_linked_to_main": false,
		"target": 19
		},
		{
		"source": 17,
		"is_linked_to_main": false,
		"target": 20
		},
		{
		"source": 17,
		"is_linked_to_main": false,
		"target": 21
		},
		{
		"source": 17,
		"is_linked_to_main": false,
		"target": 22
		},
		{
		"source": 17,
		"is_linked_to_main": false,
		"target": 23
		},
		{
		"source": 17,
		"is_linked_to_main": false,
		"target": 24
		},
		{
		"source": 17,
		"is_linked_to_main": false,
		"target": 25
		},
		{
		"source": 17,
		"is_linked_to_main": false,
		"target": 26
		},
		{
		"source": 17,
		"is_linked_to_main": false,
		"target": 27
		},
		{
		"source": 17,
		"is_linked_to_main": false,
		"target": 28
		},
		{
		"source": 17,
		"is_linked_to_main": false,
		"target": 29
		},
		{
		"source": 17,
		"is_linked_to_main": false,
		"target": 30
		},
		{
		"source": 17,
		"is_linked_to_main": false,
		"target": 31
		},
		{
		"source": 17,
		"is_linked_to_main": false,
		"target": 32
		},
		{
		"source": 17,
		"is_linked_to_main": false,
		"target": 33
		},
		{
		"source": 17,
		"is_linked_to_main": false,
		"target": 34
		},
		{
		"source": 17,
		"is_linked_to_main": false,
		"target": 35
		},
		{
		"source": 17,
		"is_linked_to_main": false,
		"target": 36
		},
		{
		"source": 17,
		"is_linked_to_main": false,
		"target": 37
		},
		{
		"source": 17,
		"is_linked_to_main": false,
		"target": 38
		},
		{
		"source": 17,
		"is_linked_to_main": false,
		"target": 39
		},
		{
		"source": 17,
		"is_linked_to_main": false,
		"target": 40
		},
		{
		"source": 17,
		"is_linked_to_main": false,
		"target": 41
		},
		{
		"source": 17,
		"is_linked_to_main": false,
		"target": 42
		},
		{
		"source": 17,
		"is_linked_to_main": false,
		"target": 43
		},
		{
		"source": 17,
		"is_linked_to_main": false,
		"target": 44
		},
		{
		"source": 17,
		"is_linked_to_main": false,
		"target": 45
		},
		{
		"source": 17,
		"is_linked_to_main": false,
		"target": 46
		},
		{
		"source": 17,
		"is_linked_to_main": false,
		"target": 47
		},
		{
		"source": 17,
		"is_linked_to_main": false,
		"target": 48
		},
		{
		"source": 17,
		"is_linked_to_main": false,
		"target": 49
		},
		{
		"source": 17,
		"is_linked_to_main": false,
		"target": 50
		},
		{
		"source": 17,
		"is_linked_to_main": false,
		"target": 51
		},
		{
		"source": 17,
		"is_linked_to_main": false,
		"target": 52
		},
		{
		"source": 17,
		"is_linked_to_main": false,
		"target": 53
		},
		{
		"source": 17,
		"is_linked_to_main": false,
		"target": 54
		},
		{
		"source": 17,
		"is_linked_to_main": false,
		"target": 55
		},
		{
		"source": 17,
		"is_linked_to_main": false,
		"target": 56
		},
		{
		"source": 17,
		"is_linked_to_main": false,
		"target": 57
		},
		{
		"source": 17,
		"is_linked_to_main": false,
		"target": 58
		},
		{
		"source": 17,
		"is_linked_to_main": false,
		"target": 59
		},
		{
		"source": 17,
		"is_linked_to_main": false,
		"target": 60
		},
		{
		"source": 17,
		"is_linked_to_main": false,
		"target": 61
		},
		{
		"source": 17,
		"is_linked_to_main": false,
		"target": 62
		},
		{
		"source": 17,
		"is_linked_to_main": false,
		"target": 63
		},
		{
		"source": 17,
		"is_linked_to_main": false,
		"target": 64
		},
		{
		"source": 17,
		"is_linked_to_main": false,
		"target": 65
		},
		{
		"source": 17,
		"is_linked_to_main": false,
		"target": 66
		},
		{
		"source": 17,
		"is_linked_to_main": false,
		"target": 67
		},
		{
		"source": 17,
		"is_linked_to_main": false,
		"target": 68
		},
		{
		"source": 17,
		"is_linked_to_main": false,
		"target": 69
		},
		{
		"source": 17,
		"is_linked_to_main": false,
		"target": 70
		},
		{
		"source": 17,
		"is_linked_to_main": false,
		"target": 71
		},
		{
		"source": 17,
		"is_linked_to_main": false,
		"target": 72
		},
		{
		"source": 17,
		"is_linked_to_main": false,
		"target": 73
		},
		{
		"source": 17,
		"is_linked_to_main": false,
		"target": 74
		},
		{
		"source": 17,
		"is_linked_to_main": false,
		"target": 75
		},
		{
		"source": 17,
		"is_linked_to_main": false,
		"target": 76
		},
		{
		"source": 17,
		"is_linked_to_main": false,
		"target": 77
		},
		{
		"source": 17,
		"is_linked_to_main": false,
		"target": 78
		},
		{
		"source": 17,
		"is_linked_to_main": false,
		"target": 79
		},
		{
		"source": 17,
		"is_linked_to_main": false,
		"target": 80
		},
		{
		"source": 17,
		"is_linked_to_main": false,
		"target": 81
		},
		{
		"source": 17,
		"is_linked_to_main": false,
		"target": 82
		},
		{
		"source": 17,
		"is_linked_to_main": false,
		"target": 83
		},
		{
		"source": 17,
		"is_linked_to_main": false,
		"target": 84
		},
		{
		"source": 17,
		"is_linked_to_main": false,
		"target": 85
		},
		{
		"source": 17,
		"is_linked_to_main": false,
		"target": 86
		},
		{
		"source": 17,
		"is_linked_to_main": false,
		"target": 87
		},
		{
		"source": 17,
		"is_linked_to_main": false,
		"target": 88
		},
		{
		"source": 17,
		"is_linked_to_main": false,
		"target": 89
		},
		{
		"source": 17,
		"is_linked_to_main": false,
		"target": 90
		},
		{
		"source": 17,
		"is_linked_to_main": false,
		"target": 91
		},
		{
		"source": 17,
		"is_linked_to_main": false,
		"target": 92
		},
		{
		"source": 17,
		"is_linked_to_main": false,
		"target": 93
		},
		{
		"source": 17,
		"is_linked_to_main": false,
		"target": 94
		},
		{
		"source": 17,
		"is_linked_to_main": false,
		"target": 95
		},
		{
		"source": 17,
		"is_linked_to_main": false,
		"target": 96
		},
		{
		"source": 17,
		"is_linked_to_main": false,
		"target": 97
		},
		{
		"source": 17,
		"is_linked_to_main": false,
		"target": 98
		},
		{
		"source": 17,
		"is_linked_to_main": false,
		"target": 99
		},
		{
		"source": 17,
		"is_linked_to_main": false,
		"target": 100
		}
	]
}
